[gd_resource type="AtlasTexture" load_steps=2 format=2]

[ext_resource path="res://Assets/textures_mesh.png" type="Texture" id=1]

[resource]
flags = 19
atlas = ExtResource( 1 )
region = Rect2( 64, 16, 16, 16 )
